"cruise_factory_entity_type","base_id","cruise_id_on_base_id","base_sailingdate","sailingdate","cruise_details"
"base_sailingdates","345116","","2016/12/09","","<div class=""view view-all-new-cfe-cruises-combine view-id-all_new_cfe_cruises_combine view-display-id-cruise_combine_block view-dom-id-ac89e82b703429c4f850f3b92dfee4d5""><br />        <br />  <br />  <br />  <br />  <br />  <br />  <br />  <br />  <br /></div>"
"base_sailingdates","345117","","2017/01/20","","<div class=""view view-all-new-cfe-cruises-combine view-id-all_new_cfe_cruises_combine view-display-id-cruise_combine_block view-dom-id-10097e8e560131f0507500a03c7b71f1""><br />        <br />  <br />  <br />  <br />  <br />  <br />  <br />  <br />  <br /></div>"
"base_sailingdates","345118","","2017/02/03","","<div class=""view view-all-new-cfe-cruises-combine view-id-all_new_cfe_cruises_combine view-display-id-cruise_combine_block view-dom-id-213a2a98ebea90139347afa2f8fe2d2f""><br />        <br />  <br />  <br />  <br />  <br />  <br />  <br />  <br />  <br /></div>"
